  0
SECTION
  2
HEADER
  9
$ACADVER
  1
AC1009
  9
$DWGCODEPAGE
  3
ansi_1252
  9
$INSBASE
 10
0.0
 20
0.0
 30
0.0
  9
$EXTMIN
 10
1328.516894734345
 20
-528.7486020989002
 30
-0.0000000000000426
  9
$EXTMAX
 10
1479.516894734345
 20
-363.7486020989001
 30
0.0000000000000426
  9
$LIMMIN
 10
0.0
 20
0.0
  9
$LIMMAX
 10
12.0
 20
9.0
  9
$ORTHOMODE
 70
     0
  9
$REGENMODE
 70
     1
  9
$FILLMODE
 70
     1
  9
$QTEXTMODE
 70
     0
  9
$MIRRTEXT
 70
     1
  9
$DRAGMODE
 70
     2
  9
$LTSCALE
 40
1.0
  9
$OSMODE
 70
    37
  9
$ATTMODE
 70
     1
  9
$TEXTSIZE
 40
0.2
  9
$TRACEWID
 40
0.05
  9
$TEXTSTYLE
  7
STANDARD
  9
$CLAYER
  8
ALU
  9
$CELTYPE
  6
BYLAYER
  9
$CECOLOR
 62
   256
  9
$DIMSCALE
 40
1.0
  9
$DIMASZ
 40
0.18
  9
$DIMEXO
 40
0.0625
  9
$DIMDLI
 40
0.38
  9
$DIMRND
 40
0.0
  9
$DIMDLE
 40
0.0
  9
$DIMEXE
 40
0.18
  9
$DIMTP
 40
0.0
  9
$DIMTM
 40
0.0
  9
$DIMTXT
 40
0.18
  9
$DIMCEN
 40
0.09
  9
$DIMTSZ
 40
0.0
  9
$DIMTOL
 70
     0
  9
$DIMLIM
 70
     0
  9
$DIMTIH
 70
     1
  9
$DIMTOH
 70
     1
  9
$DIMSE1
 70
     0
  9
$DIMSE2
 70
     0
  9
$DIMTAD
 70
     0
  9
$DIMZIN
 70
     0
  9
$DIMBLK
  1

  9
$DIMASO
 70
     1
  9
$DIMSHO
 70
     1
  9
$DIMPOST
  1

  9
$DIMAPOST
  1

  9
$DIMALT
 70
     0
  9
$DIMALTD
 70
     2
  9
$DIMALTF
 40
25.4
  9
$DIMLFAC
 40
1.0
  9
$DIMTOFL
 70
     0
  9
$DIMTVP
 40
0.0
  9
$DIMTIX
 70
     0
  9
$DIMSOXD
 70
     0
  9
$DIMSAH
 70
     0
  9
$DIMBLK1
  1

  9
$DIMBLK2
  1

  9
$DIMSTYLE
  2
STANDARD
  9
$DIMCLRD
 70
     0
  9
$DIMCLRE
 70
     0
  9
$DIMCLRT
 70
     0
  9
$DIMTFAC
 40
1.0
  9
$DIMGAP
 40
0.09
  9
$LUNITS
 70
     2
  9
$LUPREC
 70
     3
  9
$SKETCHINC
 40
0.1
  9
$FILLETRAD
 40
0.5
  9
$AUNITS
 70
     0
  9
$AUPREC
 70
     0
  9
$MENU
  1
.
  9
$ELEVATION
 40
0.0
  9
$PELEVATION
 40
0.0
  9
$THICKNESS
 40
0.0
  9
$LIMCHECK
 70
     0
  9
$CHAMFERA
 40
0.0
  9
$CHAMFERB
 40
0.0
  9
$SKPOLY
 70
     0
  9
$TDCREATE
 40
2458423.616623333
  9
$TDUPDATE
 40
2458423.616637581
  9
$TDINDWG
 40
0.0000000116
  9
$TDUSRTIMER
 40
0.0000000116
  9
$USRTIMER
 70
     1
  9
$ANGBASE
 50
0.0
  9
$ANGDIR
 70
     0
  9
$PDMODE
 70
     0
  9
$PDSIZE
 40
0.0
  9
$PLINEWID
 40
0.0
  9
$COORDS
 70
     1
  9
$SPLFRAME
 70
     0
  9
$SPLINETYPE
 70
     6
  9
$SPLINESEGS
 70
     8
  9
$ATTDIA
 70
     0
  9
$ATTREQ
 70
     1
  9
$HANDLING
 70
     1
  9
$HANDSEED
  5
11A
  9
$SURFTAB1
 70
     6
  9
$SURFTAB2
 70
     6
  9
$SURFTYPE
 70
     6
  9
$SURFU
 70
     6
  9
$SURFV
 70
     6
  9
$UCSNAME
  2

  9
$UCSORG
 10
0.0
 20
0.0
 30
0.0
  9
$UCSXDIR
 10
1.0
 20
0.0
 30
0.0
  9
$UCSYDIR
 10
0.0
 20
1.0
 30
0.0
  9
$PUCSNAME
  2

  9
$PUCSORG
 10
0.0
 20
0.0
 30
0.0
  9
$PUCSXDIR
 10
1.0
 20
0.0
 30
0.0
  9
$PUCSYDIR
 10
0.0
 20
1.0
 30
0.0
  9
$USERI1
 70
     0
  9
$USERI2
 70
     0
  9
$USERI3
 70
     0
  9
$USERI4
 70
     0
  9
$USERI5
 70
     0
  9
$USERR1
 40
0.0
  9
$USERR2
 40
0.0
  9
$USERR3
 40
0.0
  9
$USERR4
 40
0.0
  9
$USERR5
 40
0.0
  9
$WORLDVIEW
 70
     1
  9
$SHADEDGE
 70
     3
  9
$SHADEDIF
 70
    70
  9
$TILEMODE
 70
     1
  9
$MAXACTVP
 70
    64
  9
$PLIMCHECK
 70
     0
  9
$PEXTMIN
 10
1.000000000000000E+20
 20
1.000000000000000E+20
 30
1.000000000000000E+20
  9
$PEXTMAX
 10
-1.000000000000000E+20
 20
-1.000000000000000E+20
 30
-1.000000000000000E+20
  9
$PLIMMIN
 10
0.0
 20
0.0
  9
$PLIMMAX
 10
12.0
 20
9.0
  9
$UNITMODE
 70
     0
  9
$VISRETAIN
 70
     1
  9
$PLINEGEN
 70
     0
  9
$PSLTSCALE
 70
     1
  0
ENDSEC
  0
SECTION
  2
TABLES
  0
TABLE
  2
VPORT
 70
     1
  0
VPORT
  2
*ACTIVE
 70
     0
 10
0.0
 20
0.0
 11
1.0
 21
1.0
 12
1404.016894734345
 22
-446.2486020989001
 13
0.0
 23
0.0
 14
0.5
 24
0.5
 15
0.5
 25
0.5
 16
0.0
 26
0.0
 36
1.0
 17
0.0
 27
0.0
 37
0.0
 40
168.3000000000001
 41
0.9151515151515145
 42
50.0
 43
0.0
 44
0.0
 50
0.0
 51
0.0
 71
     0
 72
   100
 73
     1
 74
     3
 75
     0
 76
     0
 77
     0
 78
     0
  0
ENDTAB
  0
TABLE
  2
LTYPE
 70
     1
  0
LTYPE
  2
CONTINUOUS
 70
     0
  3
Solid line
 72
    65
 73
     0
 40
0.0
  0
ENDTAB
  0
TABLE
  2
LAYER
 70
     2
  0
LAYER
  2
0
 70
     0
 62
     7
  6
CONTINUOUS
  0
LAYER
  2
ALU
 70
     0
 62
     7
  6
CONTINUOUS
  0
ENDTAB
  0
TABLE
  2
STYLE
 70
     1
  0
STYLE
  2
STANDARD
 70
     0
 40
0.0
 41
1.0
 50
0.0
 71
     0
 42
0.2
  3
txt
  4

  0
ENDTAB
  0
TABLE
  2
VIEW
 70
     0
  0
ENDTAB
  0
TABLE
  2
UCS
 70
     0
  0
ENDTAB
  0
TABLE
  2
APPID
 70
     1
  0
APPID
  2
ACAD
 70
     0
  0
ENDTAB
  0
TABLE
  2
DIMSTYLE
 70
     1
  0
DIMSTYLE
  2
STANDARD
 70
     0
  3

  4

  5

  6

  7

 40
1.0
 41
0.18
 42
0.0625
 43
0.38
 44
0.18
 45
0.0
 46
0.0
 47
0.0
 48
0.0
140
0.18
141
0.09
142
0.0
143
25.4
144
1.0
145
0.0
146
1.0
147
0.09
 71
     0
 72
     0
 73
     1
 74
     1
 75
     0
 76
     0
 77
     0
 78
     0
170
     0
171
     2
172
     0
173
     0
174
     0
175
     0
176
     0
177
     0
178
     0
  0
ENDTAB
  0
ENDSEC
  0
SECTION
  2
BLOCKS
  0
BLOCK
  8
0
  2
$MODEL_SPACE
 70
     0
 10
0.0
 20
0.0
 30
0.0
  3
$MODEL_SPACE
  1

  0
ENDBLK
  5
21
  8
0
  0
BLOCK
 67
     1
  8
0
  2
$PAPER_SPACE
 70
     0
 10
0.0
 20
0.0
 30
0.0
  3
$PAPER_SPACE
  1

  0
ENDBLK
  5
1D
 67
     1
  8
0
  0
ENDSEC
  0
SECTION
  2
ENTITIES
  0
ARC
  5
6F
  8
ALU
 10
1364.016894734345
 20
-402.2486020989002
 30
0.0000000000000048
 40
0.5
 50
270.0
 51
0.0
  0
LINE
  5
70
  8
ALU
 10
1364.516894734345
 20
-402.2486020989002
 30
0.0
 11
1364.516894734345
 21
-386.4765425674327
 31
0.0
  0
LINE
  5
71
  8
ALU
 10
1364.516894734345
 20
-386.4765425674327
 30
0.0
 11
1357.516894734345
 21
-386.4765425674327
 31
0.0
  0
LINE
  5
72
  8
ALU
 10
1357.516894734345
 20
-386.4765425674327
 30
0.0
 11
1339.516894734345
 21
-393.0280067842243
 31
0.0
  0
LINE
  5
73
  8
ALU
 10
1339.516894734345
 20
-393.0280067842243
 30
0.0
 11
1339.516894734345
 21
-402.2486020989004
 31
0.0
  0
ARC
  5
74
  8
ALU
 10
1340.016894734345
 20
-402.2486020989004
 30
0.0000000000000048
 40
0.5
 50
180.0
 51
270.0
  0
LINE
  5
75
  8
ALU
 10
1340.016894734345
 20
-402.7486020989004
 30
0.0
 11
1364.016894734345
 21
-402.7486020989002
 31
0.0
  0
ARC
  5
76
  8
ALU
 10
1364.016894734345
 20
-405.2486020989002
 30
0.0
 40
0.4999999999999858
 50
0.0
 51
90.0
  0
LINE
  5
77
  8
ALU
 10
1364.516894734345
 20
-405.2486020989002
 30
0.0
 11
1364.516894734345
 21
-421.0206616303678
 31
0.0
  0
LINE
  5
78
  8
ALU
 10
1364.516894734345
 20
-421.0206616303678
 30
0.0
 11
1357.516894734345
 21
-421.0206616303678
 31
0.0
  0
LINE
  5
79
  8
ALU
 10
1357.516894734345
 20
-421.0206616303678
 30
0.0
 11
1339.516894734345
 21
-414.4691974135762
 31
0.0
  0
LINE
  5
7A
  8
ALU
 10
1339.516894734345
 20
-414.4691974135762
 30
0.0
 11
1339.516894734345
 21
-405.2486020989002
 31
0.0
  0
ARC
  5
7B
  8
ALU
 10
1340.016894734345
 20
-405.2486020989002
 30
0.0
 40
0.4999999999999998
 50
90.0
 51
180.0
  0
LINE
  5
7C
  8
ALU
 10
1340.016894734345
 20
-404.7486020989002
 30
0.0
 11
1364.016894734345
 21
-404.7486020989002
 31
0.0
  0
ARC
  5
7D
  8
ALU
 10
1364.016894734345
 20
-490.2486020989002
 30
0.0
 40
0.4999999999999858
 50
0.0
 51
90.0
  0
LINE
  5
7E
  8
ALU
 10
1364.516894734345
 20
-490.2486020989002
 30
0.0
 11
1364.516894734345
 21
-506.0206616303678
 31
0.0
  0
LINE
  5
7F
  8
ALU
 10
1364.516894734345
 20
-506.0206616303678
 30
0.0
 11
1357.516894734345
 21
-506.0206616303678
 31
0.0
  0
LINE
  5
80
  8
ALU
 10
1357.516894734345
 20
-506.0206616303678
 30
0.0
 11
1339.516894734345
 21
-499.4691974135762
 31
0.0
  0
LINE
  5
81
  8
ALU
 10
1339.516894734345
 20
-499.4691974135762
 30
0.0
 11
1339.516894734345
 21
-490.2486020989002
 31
0.0
  0
ARC
  5
82
  8
ALU
 10
1340.016894734345
 20
-490.2486020989002
 30
0.0
 40
0.4999999999999998
 50
90.0
 51
180.0
  0
LINE
  5
83
  8
ALU
 10
1340.016894734345
 20
-489.7486020989002
 30
0.0
 11
1364.016894734345
 21
-489.7486020989002
 31
0.0
  0
ARC
  5
84
  8
ALU
 10
1364.016894734345
 20
-487.2486020989002
 30
0.0000000000000048
 40
0.5
 50
270.0
 51
0.0
  0
LINE
  5
85
  8
ALU
 10
1364.516894734345
 20
-487.2486020989002
 30
0.0
 11
1364.516894734345
 21
-471.4765425674327
 31
0.0
  0
LINE
  5
86
  8
ALU
 10
1364.516894734345
 20
-471.4765425674327
 30
0.0
 11
1357.516894734345
 21
-471.4765425674327
 31
0.0
  0
LINE
  5
87
  8
ALU
 10
1357.516894734345
 20
-471.4765425674327
 30
0.0
 11
1339.516894734345
 21
-478.0280067842243
 31
0.0
  0
LINE
  5
88
  8
ALU
 10
1339.516894734345
 20
-478.0280067842243
 30
0.0
 11
1339.516894734345
 21
-487.2486020989004
 31
0.0
  0
ARC
  5
89
  8
ALU
 10
1340.016894734345
 20
-487.2486020989004
 30
0.0000000000000048
 40
0.5
 50
180.0
 51
270.0
  0
LINE
  5
8A
  8
ALU
 10
1340.016894734345
 20
-487.7486020989004
 30
0.0
 11
1364.016894734345
 21
-487.7486020989002
 31
0.0
  0
ARC
  5
8B
  8
ALU
 10
1342.091207439168
 20
-467.7267090396474
 30
0.0
 40
1.25
 50
90.0
 51
270.0
  0
ARC
  5
8C
  8
ALU
 10
1342.091207439168
 20
-467.7267090396474
 30
0.0
 40
1.25
 50
270.0
 51
90.0
  0
ARC
  5
8D
  8
ALU
 10
1342.091207439168
 20
-509.7704951581529
 30
0.0
 40
1.25
 50
270.0
 51
90.0
  0
ARC
  5
8E
  8
ALU
 10
1342.091207439168
 20
-509.7704951581529
 30
0.0
 40
1.25
 50
90.0
 51
270.0
  0
ARC
  5
8F
  8
ALU
 10
1334.548441026241
 20
-470.4720514979756
 30
0.0
 40
1.25
 50
90.0
 51
270.0
  0
ARC
  5
90
  8
ALU
 10
1334.548441026241
 20
-470.4720514979756
 30
0.0
 40
1.25
 50
270.0
 51
90.0
  0
ARC
  5
91
  8
ALU
 10
1331.42873124399
 20
-502.6971378821099
 30
0.0
 40
0.5000000000013642
 50
70.00000000003975
 51
89.99999999997394
  0
LINE
  5
92
  8
ALU
 10
1331.599741315653
 20
-502.2272915717156
 30
0.0
 11
1349.516894734345
 21
-508.7486020989002
 31
0.0
  0
LINE
  5
93
  8
ALU
 10
1349.516894734345
 20
-508.7486020989002
 30
0.0
 11
1369.516894734345
 21
-508.7486020989002
 31
0.0
  0
LINE
  5
94
  8
ALU
 10
1369.516894734345
 20
-508.7486020989002
 30
0.0
 11
1369.516894734345
 21
-468.7486020989002
 31
0.0
  0
LINE
  5
95
  8
ALU
 10
1369.516894734345
 20
-468.7486020989002
 30
0.0
 11
1349.516894734345
 21
-468.7486020989002
 31
0.0
  0
LINE
  5
96
  8
ALU
 10
1349.516894734345
 20
-468.7486020989002
 30
0.0
 11
1331.599741315653
 21
-475.2699126260847
 31
0.0
  0
ARC
  5
97
  8
ALU
 10
1331.42873124399
 20
-474.8000663156901
 30
-0.0000000000008941
 40
0.5000000000017919
 50
270.0000000000782
 51
289.9999999999981
  0
LINE
  5
98
  8
ALU
 10
1331.42873124399
 20
-475.3000663156919
 30
0.0
 11
1329.516894734345
 21
-475.300066315692
 31
0.0
  0
ARC
  5
99
  8
ALU
 10
1329.516894734345
 20
-474.300066315692
 30
0.0000000000000048
 40
1.0
 50
180.0
 51
270.0
  0
LINE
  5
9A
  8
ALU
 10
1328.516894734345
 20
-474.300066315692
 30
0.0
 11
1328.516894734345
 21
-449.7486020989002
 31
0.0
  0
ARC
  5
9B
  8
ALU
 10
1329.516894734345
 20
-449.7486020989001
 30
0.0
 40
1.0
 50
90.0
 51
180.0000000000065
  0
LINE
  5
9C
  8
ALU
 10
1329.516894734345
 20
-448.7486020989002
 30
0.0
 11
1388.516894734344
 21
-448.7486020989002
 31
0.0
  0
ARC
  5
9D
  8
ALU
 10
1388.516894734344
 20
-449.7486020989005
 30
0.0
 40
1.000000000000341
 50
0.0000000000195413
 51
90.0
  0
LINE
  5
9E
  8
ALU
 10
1389.516894734345
 20
-449.7486020989002
 30
0.0
 11
1389.516894734345
 21
-527.7486020989002
 31
0.0
  0
ARC
  5
9F
  8
ALU
 10
1388.516894734345
 20
-527.7486020989002
 30
0.0
 40
1.0
 50
270.0
 51
0.0
  0
LINE
  5
A0
  8
ALU
 10
1388.516894734345
 20
-528.7486020989002
 30
0.0
 11
1329.516894734345
 21
-528.7486020989002
 31
0.0
  0
ARC
  5
A1
  8
ALU
 10
1329.516894734345
 20
-527.7486020989002
 30
0.0
 40
0.9999999999999998
 50
180.0
 51
270.0
  0
LINE
  5
A2
  8
ALU
 10
1328.516894734345
 20
-527.7486020989002
 30
0.0
 11
1328.516894734345
 21
-503.1971378821086
 31
0.0
  0
ARC
  5
A3
  8
ALU
 10
1329.516894734345
 20
-503.1971378821086
 30
0.0
 40
1.0
 50
90.0
 51
180.0
  0
LINE
  5
A4
  8
ALU
 10
1329.516894734345
 20
-502.1971378821086
 30
0.0
 11
1331.42873124399
 21
-502.1971378821086
 31
0.0
  0
ARC
  5
A5
  8
ALU
 10
1334.548441026241
 20
-507.0251526998247
 30
0.0
 40
1.25
 50
270.0
 51
90.0
  0
ARC
  5
A6
  8
ALU
 10
1334.548441026241
 20
-507.0251526998247
 30
0.0
 40
1.25
 50
90.0
 51
270.0
  0
CIRCLE
  5
A7
  8
ALU
 10
1382.516894734345
 20
-459.0624355841977
 30
0.0
 40
2.625000000000114
  0
CIRCLE
  5
A8
  8
ALU
 10
1382.516894734345
 20
-519.0624355841977
 30
0.0
 40
2.625000000000114
  0
ARC
  5
A9
  8
ALU
 10
1342.091207439168
 20
-382.7267090396474
 30
0.0
 40
1.25
 50
90.0
 51
270.0
  0
ARC
  5
AA
  8
ALU
 10
1342.091207439168
 20
-382.7267090396474
 30
0.0
 40
1.25
 50
270.0
 51
90.0
  0
ARC
  5
AB
  8
ALU
 10
1342.091207439168
 20
-424.7704951581529
 30
0.0
 40
1.25
 50
270.0
 51
90.0
  0
ARC
  5
AC
  8
ALU
 10
1342.091207439168
 20
-424.7704951581529
 30
0.0
 40
1.25
 50
90.0
 51
270.0
  0
ARC
  5
AD
  8
ALU
 10
1334.548441026241
 20
-385.4720514979756
 30
0.0
 40
1.25
 50
90.0
 51
270.0
  0
ARC
  5
AE
  8
ALU
 10
1334.548441026241
 20
-385.4720514979756
 30
0.0
 40
1.25
 50
270.0
 51
90.0
  0
ARC
  5
AF
  8
ALU
 10
1331.42873124399
 20
-417.69713788211
 30
0.0
 40
0.5000000000014779
 50
70.00000000004421
 51
89.99999999997394
  0
LINE
  5
B0
  8
ALU
 10
1331.599741315653
 20
-417.2272915717156
 30
0.0
 11
1349.516894734345
 21
-423.7486020989002
 31
0.0
  0
LINE
  5
B1
  8
ALU
 10
1349.516894734345
 20
-423.7486020989002
 30
0.0
 11
1369.516894734345
 21
-423.7486020989002
 31
0.0
  0
LINE
  5
B2
  8
ALU
 10
1369.516894734345
 20
-423.7486020989002
 30
0.0
 11
1369.516894734345
 21
-383.7486020989002
 31
0.0
  0
LINE
  5
B3
  8
ALU
 10
1369.516894734345
 20
-383.7486020989002
 30
0.0
 11
1349.516894734345
 21
-383.7486020989002
 31
0.0
  0
LINE
  5
B4
  8
ALU
 10
1349.516894734345
 20
-383.7486020989002
 30
0.0
 11
1331.599741315653
 21
-390.2699126260847
 31
0.0
  0
ARC
  5
B5
  8
ALU
 10
1331.42873124399
 20
-389.8000663156901
 30
-0.0000000000008941
 40
0.5000000000017919
 50
270.0000000000782
 51
289.9999999999981
  0
LINE
  5
B6
  8
ALU
 10
1331.42873124399
 20
-390.3000663156919
 30
0.0
 11
1329.516894734345
 21
-390.300066315692
 31
0.0
  0
ARC
  5
B7
  8
ALU
 10
1329.516894734345
 20
-389.300066315692
 30
0.0000000000000048
 40
1.0
 50
180.0
 51
270.0
  0
LINE
  5
B8
  8
ALU
 10
1328.516894734345
 20
-389.300066315692
 30
0.0
 11
1328.516894734345
 21
-364.7486020989002
 31
0.0
  0
ARC
  5
B9
  8
ALU
 10
1329.516894734345
 20
-364.7486020989001
 30
0.0
 40
1.0
 50
90.0
 51
180.0000000000065
  0
LINE
  5
BA
  8
ALU
 10
1329.516894734345
 20
-363.7486020989002
 30
0.0
 11
1388.516894734344
 21
-363.7486020989002
 31
0.0
  0
ARC
  5
BB
  8
ALU
 10
1388.516894734344
 20
-364.7486020989005
 30
0.0
 40
1.000000000000341
 50
0.0000000000195413
 51
90.0
  0
LINE
  5
BC
  8
ALU
 10
1389.516894734345
 20
-364.7486020989002
 30
0.0
 11
1389.516894734345
 21
-442.7486020989002
 31
0.0
  0
ARC
  5
BD
  8
ALU
 10
1388.516894734345
 20
-442.7486020989002
 30
0.0
 40
1.0
 50
270.0
 51
0.0
  0
LINE
  5
BE
  8
ALU
 10
1388.516894734345
 20
-443.7486020989002
 30
0.0
 11
1329.516894734345
 21
-443.7486020989002
 31
0.0
  0
ARC
  5
BF
  8
ALU
 10
1329.516894734345
 20
-442.7486020989002
 30
0.0
 40
0.9999999999999998
 50
180.0
 51
270.0
  0
LINE
  5
C0
  8
ALU
 10
1328.516894734345
 20
-442.7486020989002
 30
0.0
 11
1328.516894734345
 21
-418.1971378821086
 31
0.0
  0
ARC
  5
C1
  8
ALU
 10
1329.516894734345
 20
-418.1971378821086
 30
0.0
 40
1.0
 50
90.0
 51
180.0
  0
LINE
  5
C2
  8
ALU
 10
1329.516894734345
 20
-417.1971378821086
 30
0.0
 11
1331.42873124399
 21
-417.1971378821086
 31
0.0
  0
ARC
  5
C3
  8
ALU
 10
1334.548441026241
 20
-422.0251526998247
 30
0.0
 40
1.25
 50
270.0
 51
90.0
  0
ARC
  5
C4
  8
ALU
 10
1334.548441026241
 20
-422.0251526998247
 30
0.0
 40
1.25
 50
90.0
 51
270.0
  0
CIRCLE
  5
C5
  8
ALU
 10
1382.516894734345
 20
-374.0624355841977
 30
0.0
 40
2.625000000000114
  0
CIRCLE
  5
C6
  8
ALU
 10
1382.516894734345
 20
-434.0624355841978
 30
0.0
 40
2.625000000000227
  0
LINE
  5
C7
  8
ALU
 10
1462.516269734364
 20
-373.1571017226332
 30
0.0000000000000426
 11
1416.517519734325
 21
-373.1571017226332
 31
-0.0000000000000142
  0
ARC
  5
C8
  8
ALU
 10
1416.517519734324
 20
-375.1571017226326
 30
-0.0000000000010316
 40
1.999999999999375
 50
89.99999999998046
 51
180.0000000000179
  0
LINE
  5
C9
  8
ALU
 10
1414.517519734325
 20
-375.1571017226332
 30
-0.0000000000000426
 11
1414.517519734325
 21
-403.4840945108878
 31
-0.0000000000000142
  0
LINE
  5
CA
  8
ALU
 10
1414.517519734325
 20
-403.4840945108878
 30
-0.0000000000000142
 11
1416.696578783776
 21
-408.1571017226335
 31
-0.0000000000000142
  0
LINE
  5
CB
  8
ALU
 10
1416.696578783776
 20
-408.1571017226335
 30
-0.0000000000000142
 11
1414.517519734325
 21
-412.8301089343789
 31
-0.0000000000000142
  0
LINE
  5
CC
  8
ALU
 10
1414.517519734325
 20
-412.8301089343789
 30
-0.0000000000000142
 11
1414.517519734325
 21
-441.1571017226332
 31
0.0000000000000142
  0
ARC
  5
CD
  8
ALU
 10
1416.517519734325
 20
-441.1571017226335
 30
0.0000000000011104
 40
1.999999999999773
 50
179.9999999999935
 51
270.0000000000065
  0
LINE
  5
CE
  8
ALU
 10
1416.517519734325
 20
-443.1571017226332
 30
-0.0000000000000142
 11
1462.516269734364
 21
-443.1571017226332
 31
0.0000000000000142
  0
ARC
  5
CF
  8
ALU
 10
1462.516269734365
 20
-441.1571017226338
 30
-0.0000000000000452
 40
1.999999999999432
 50
269.9999999999804
 51
0.0000000000162844
  0
LINE
  5
D0
  8
ALU
 10
1464.516269734364
 20
-441.1571017226332
 30
-0.0000000000000142
 11
1464.516269734364
 21
-425.1571017226335
 31
0.0000000000000142
  0
ARC
  5
D1
  8
ALU
 10
1462.516269734365
 20
-425.1571017226325
 30
-0.0000000000006833
 40
1.999999999999091
 50
359.999999999974
 51
90.00000000002606
  0
LINE
  5
D2
  8
ALU
 10
1462.516269734364
 20
-423.1571017226335
 30
-0.0000000000000142
 11
1446.516269734364
 21
-423.1571017226335
 31
-0.0000000000000142
  0
ARC
  5
D3
  8
ALU
 10
1446.516269734365
 20
-421.1571017226328
 30
0.0000000000006549
 40
2.000000000000682
 50
180.000000000013
 51
269.9999999999804
  0
LINE
  5
D4
  8
ALU
 10
1444.516269734364
 20
-421.1571017226332
 30
-0.0000000000000142
 11
1444.516269734364
 21
-395.1571017226335
 31
-0.0000000000000142
  0
ARC
  5
D5
  8
ALU
 10
1446.516269734364
 20
-395.1571017226338
 30
-0.000000000000355
 40
2.000000000000455
 50
90.00000000001303
 51
179.9999999999902
  0
LINE
  5
D6
  8
ALU
 10
1446.516269734364
 20
-393.1571017226335
 30
-0.0000000000000142
 11
1462.516269734364
 21
-393.1571017226335
 31
0.0000000000000142
  0
ARC
  5
D7
  8
ALU
 10
1462.516269734364
 20
-391.1571017226335
 30
0.0000000000017266
 40
2.0
 50
269.9999999999935
 51
0.0
  0
LINE
  5
D8
  8
ALU
 10
1464.516269734364
 20
-391.1571017226335
 30
0.0000000000000142
 11
1464.516269734364
 21
-375.1571017226332
 31
0.0000000000000142
  0
ARC
  5
D9
  8
ALU
 10
1462.516269734364
 20
-375.1571017226336
 30
0.0000000000007201
 40
2.000000000000455
 50
0.0000000000097707
 51
89.99999999998697
  0
CIRCLE
  5
DA
  8
ALU
 10
1419.516269734364
 20
-438.1571017226335
 30
-0.0000000000000142
 40
2.75
  0
CIRCLE
  5
DB
  8
ALU
 10
1439.516269734364
 20
-418.1571017226336
 30
-0.0000000000000142
 40
2.75
  0
CIRCLE
  5
DC
  8
ALU
 10
1439.516269734364
 20
-398.1571017226334
 30
-0.0000000000000142
 40
2.750000000000227
  0
CIRCLE
  5
DD
  8
ALU
 10
1459.516269734364
 20
-378.1571017226336
 30
-0.0000000000000142
 40
2.75
  0
CIRCLE
  5
DE
  8
ALU
 10
1439.516269734364
 20
-438.1571017226335
 30
-0.0000000000000142
 40
2.75
  0
CIRCLE
  5
DF
  8
ALU
 10
1459.516269734364
 20
-438.1571017226333
 30
-0.0000000000000142
 40
2.749999999999773
  0
CIRCLE
  5
E0
  8
ALU
 10
1439.516269734364
 20
-378.1571017226333
 30
-0.0000000000000142
 40
2.749999999999773
  0
CIRCLE
  5
E1
  8
ALU
 10
1419.516269734364
 20
-378.1571017226333
 30
-0.0000000000000142
 40
2.75
  0
CIRCLE
  5
E2
  8
ALU
 10
1419.516269734364
 20
-398.1571017226335
 30
-0.0000000000000142
 40
2.75
  0
CIRCLE
  5
E3
  8
ALU
 10
1419.516269734364
 20
-418.1571017226335
 30
-0.0000000000000142
 40
2.75
  0
LINE
  5
E4
  8
ALU
 10
1479.516894734344
 20
-526.7486020989002
 30
0.0
 11
1479.516894734344
 21
-526.7032644422719
 31
-0.0000000000000142
  0
LINE
  5
E5
  8
ALU
 10
1479.516894734344
 20
-526.7032644422719
 30
-0.0000000000000142
 11
1478.139113056368
 21
-523.7486020989
 31
0.0
  0
LINE
  5
E6
  8
ALU
 10
1478.139113056368
 20
-523.7486020989
 30
0.0
 11
1479.516894734344
 21
-520.7939397555282
 31
-0.0000000000000142
  0
LINE
  5
E7
  8
ALU
 10
1479.516894734344
 20
-520.7939397555282
 30
-0.0000000000000142
 11
1479.516894734345
 21
-506.7032644422719
 31
-0.0000000000000142
  0
LINE
  5
E8
  8
ALU
 10
1479.516894734345
 20
-506.7032644422719
 30
-0.0000000000000142
 11
1478.139113056368
 21
-503.7486020989001
 31
0.0
  0
LINE
  5
E9
  8
ALU
 10
1478.139113056368
 20
-503.7486020989001
 30
0.0
 11
1479.516894734345
 21
-500.7939397555282
 31
-0.0000000000000142
  0
LINE
  5
EA
  8
ALU
 10
1479.516894734345
 20
-500.7939397555282
 30
-0.0000000000000142
 11
1479.516894734345
 21
-486.7032644422719
 31
-0.0000000000000142
  0
LINE
  5
EB
  8
ALU
 10
1479.516894734345
 20
-486.7032644422719
 30
-0.0000000000000142
 11
1478.139113056368
 21
-483.7486020989001
 31
0.0
  0
LINE
  5
EC
  8
ALU
 10
1478.139113056368
 20
-483.7486020989001
 30
0.0
 11
1479.516894734345
 21
-480.7939397555282
 31
-0.0000000000000142
  0
LINE
  5
ED
  8
ALU
 10
1479.516894734345
 20
-480.7939397555282
 30
-0.0000000000000142
 11
1479.516894734345
 21
-466.7032644422719
 31
-0.0000000000000142
  0
LINE
  5
EE
  8
ALU
 10
1479.516894734345
 20
-466.7032644422719
 30
-0.0000000000000142
 11
1478.139113056368
 21
-463.7486020989001
 31
0.0
  0
LINE
  5
EF
  8
ALU
 10
1478.139113056368
 20
-463.7486020989001
 30
0.0
 11
1479.516894734345
 21
-460.7939397555282
 31
-0.0000000000000142
  0
LINE
  5
F0
  8
ALU
 10
1479.516894734345
 20
-460.7939397555282
 30
-0.0000000000000142
 11
1479.516894734345
 21
-446.7032644422719
 31
-0.0000000000000142
  0
LINE
  5
F1
  8
ALU
 10
1479.516894734345
 20
-446.7032644422719
 30
-0.0000000000000142
 11
1478.139113056368
 21
-443.7486020989001
 31
0.0
  0
LINE
  5
F2
  8
ALU
 10
1478.139113056368
 20
-443.7486020989001
 30
0.0
 11
1479.516894734344
 21
-440.7939397555282
 31
-0.0000000000000142
  0
LINE
  5
F3
  8
ALU
 10
1479.516894734344
 20
-440.7939397555282
 30
-0.0000000000000142
 11
1479.516894734344
 21
-438.7486020989002
 31
-0.0000000000000142
  0
LINE
  5
F4
  8
ALU
 10
1479.516894734344
 20
-438.7486020989002
 30
-0.0000000000000142
 11
1471.516894734344
 21
-438.7486020989002
 31
-0.0000000000000284
  0
ARC
  5
F5
  8
ALU
 10
1471.516894734344
 20
-440.7486020989001
 30
0.0000000000001525
 40
1.999999999999943
 50
90.0
 51
180.0000000000016
  0
LINE
  5
F6
  8
ALU
 10
1469.516894734344
 20
-440.7486020989002
 30
0.0
 11
1469.516894734344
 21
-451.1571017226332
 31
0.0
  0
ARC
  5
F7
  8
ALU
 10
1467.516894734344
 20
-451.1571017226333
 30
0.0000000000003333
 40
2.0
 50
270.0
 51
0.0000000000032569
  0
LINE
  5
F8
  8
ALU
 10
1467.516894734344
 20
-453.1571017226332
 30
-0.0000000000000284
 11
1411.516894734344
 21
-453.1571017226332
 31
0.0
  0
ARC
  5
F9
  8
ALU
 10
1411.516894734345
 20
-451.1571017226328
 30
0.0000000000034366
 40
2.000000000000398
 50
180.0000000000114
 51
269.9999999999935
  0
LINE
  5
FA
  8
ALU
 10
1409.516894734344
 20
-451.1571017226332
 30
0.0
 11
1409.516894734344
 21
-440.7486020989002
 31
-0.0000000000000284
  0
ARC
  5
FB
  8
ALU
 10
1407.516894734345
 20
-440.7486020989
 30
0.0000000000006064
 40
1.999999999999773
 50
359.9999999999951
 51
90.00000000000651
  0
LINE
  5
FC
  8
ALU
 10
1407.516894734344
 20
-438.7486020989002
 30
-0.0000000000000284
 11
1399.516894734344
 21
-438.7486020989002
 31
-0.0000000000000142
  0
LINE
  5
FD
  8
ALU
 10
1399.516894734344
 20
-438.7486020989002
 30
-0.0000000000000142
 11
1399.516894734344
 21
-440.7939397555282
 31
-0.0000000000000142
  0
LINE
  5
FE
  8
ALU
 10
1399.516894734344
 20
-440.7939397555282
 30
-0.0000000000000142
 11
1400.894676412321
 21
-443.7486020989001
 31
-0.0000000000000142
  0
LINE
  5
FF
  8
ALU
 10
1400.894676412321
 20
-443.7486020989001
 30
-0.0000000000000142
 11
1399.516894734344
 21
-446.7032644422719
 31
-0.0000000000000142
  0
LINE
  5
100
  8
ALU
 10
1399.516894734344
 20
-446.7032644422719
 30
-0.0000000000000142
 11
1399.516894734344
 21
-460.7939397555282
 31
-0.0000000000000142
  0
LINE
  5
101
  8
ALU
 10
1399.516894734344
 20
-460.7939397555282
 30
-0.0000000000000142
 11
1400.894676412321
 21
-463.7486020989001
 31
-0.0000000000000142
  0
LINE
  5
102
  8
ALU
 10
1400.894676412321
 20
-463.7486020989001
 30
-0.0000000000000142
 11
1399.516894734344
 21
-466.7032644422719
 31
-0.0000000000000142
  0
LINE
  5
103
  8
ALU
 10
1399.516894734344
 20
-466.7032644422719
 30
-0.0000000000000142
 11
1399.516894734344
 21
-480.7939397555282
 31
-0.0000000000000142
  0
LINE
  5
104
  8
ALU
 10
1399.516894734344
 20
-480.7939397555282
 30
-0.0000000000000142
 11
1400.894676412321
 21
-483.7486020989001
 31
0.0
  0
LINE
  5
105
  8
ALU
 10
1400.894676412321
 20
-483.7486020989001
 30
0.0
 11
1399.516894734344
 21
-486.7032644422719
 31
-0.0000000000000142
  0
LINE
  5
106
  8
ALU
 10
1399.516894734344
 20
-486.7032644422719
 30
-0.0000000000000142
 11
1399.516894734344
 21
-500.7939397555282
 31
-0.0000000000000142
  0
LINE
  5
107
  8
ALU
 10
1399.516894734344
 20
-500.7939397555282
 30
-0.0000000000000142
 11
1400.894676412321
 21
-503.7486020989001
 31
-0.0000000000000142
  0
LINE
  5
108
  8
ALU
 10
1400.894676412321
 20
-503.7486020989001
 30
-0.0000000000000142
 11
1399.516894734344
 21
-506.7032644422719
 31
-0.0000000000000142
  0
LINE
  5
109
  8
ALU
 10
1399.516894734344
 20
-506.7032644422719
 30
-0.0000000000000142
 11
1399.516894734344
 21
-520.7939397555282
 31
-0.0000000000000142
  0
LINE
  5
10A
  8
ALU
 10
1399.516894734344
 20
-520.7939397555282
 30
-0.0000000000000142
 11
1400.894676412321
 21
-523.7486020989
 31
0.0
  0
LINE
  5
10B
  8
ALU
 10
1400.894676412321
 20
-523.7486020989
 30
0.0
 11
1399.516894734344
 21
-526.7032644422719
 31
-0.0000000000000142
  0
LINE
  5
10C
  8
ALU
 10
1399.516894734344
 20
-526.7032644422719
 30
-0.0000000000000142
 11
1399.516894734344
 21
-526.7486020989002
 31
-0.0000000000000284
  0
ARC
  5
10D
  8
ALU
 10
1401.516894734344
 20
-526.7486020989004
 30
-0.0000000000003902
 40
1.999999999999773
 50
179.9999999999935
 51
270.0000000000065
  0
LINE
  5
10E
  8
ALU
 10
1401.516894734344
 20
-528.7486020989002
 30
0.0
 11
1477.516894734344
 21
-528.7486020989002
 31
0.0
  0
ARC
  5
10F
  8
ALU
 10
1477.516894734345
 20
-526.7486020989004
 30
0.0000000000007235
 40
1.999999999999773
 50
269.9999999999935
 51
0.0000000000065138
  0
CIRCLE
  5
110
  8
ALU
 10
1439.516894734344
 20
-463.7486020989004
 30
-0.0000000000000284
 40
5.349999999999909
  0
CIRCLE
  5
111
  8
ALU
 10
1439.516894734344
 20
-483.7486020989003
 30
-0.0000000000000284
 40
5.349999999999909
  0
CIRCLE
  5
112
  8
ALU
 10
1439.516894734344
 20
-503.7486020989003
 30
-0.0000000000000284
 40
5.349999999999909
  0
ENDSEC
  0
EOF
